// Jest Snapshot v1, https://goo.gl/fbAQLP

exports[`Layout container must be rendered correctly 1`] = `
<div
  className="sc-bwzfXH uwCIt"
>
  <header>
    <nav
      className="navbar-expand-sm navbar-toggleable-sm ng-white border-bottom box-shadow mb-3 sc-bdVaJa cILdpv navbar navbar-light"
    >
      <div
        className="container"
      >
        <a
          className="navbar-brand"
          href="/"
          onClick={[Function]}
        >
          MiniCarsales Home
        </a>
      </div>
    </nav>
  </header>
  <div
    className="container"
  />
</div>
`;
