// Jest Snapshot v1, https://goo.gl/fbAQLP

exports[`Created car list must be rendered correctly 1`] = `
<table
  className="table table-striped"
>
  <thead>
    <tr>
      <th>
        Make
      </th>
      <th>
        Model
      </th>
      <th>
        Doors
      </th>
      <th>
        Engine
      </th>
      <th>
        Body Type
      </th>
    </tr>
  </thead>
  <tbody>
    <tr>
      <td />
      <td />
      <td>
        3
      </td>
      <td />
      <td />
    </tr>
  </tbody>
</table>
`;
